[
  {
    "id": 1,
    "name": "Vogard CZ F161",
    "price": "12 680",
    "url": "https://content.rozetka.com.ua/goods/images/big/227382860.jpg",
    "article": "11223344",
    "color": "black",
    "factory": "Switzerland",
    "mechanism" : "Mechanical self-winding",
    "guarantee": "24 months",
    "type": "male"
  },
  {
    "id": 2,
    "name": "Vogard CZ 69",
    "price": "14 078",
    "url": "https://content2.rozetka.com.ua/goods/images/big/227383114.jpg",
    "article": "12345677",
    "color": "gold",
    "factory": "Switzerland",
    "mechanism" : "Mechanical self-winding",
    "guarantee": "24 months",
    "type": "male"
  },
  {
    "id": 3,
    "name": "Fortis 703.10.81 LCF.01",
    "price": "12 252",
    "url": "https://content2.rozetka.com.ua/goods/images/big/227367374.jpg",
    "article": "11232277",
    "color": "black",
    "factory": "Switzerland",
    "mechanism" : "Mechanical self-winding",
    "guarantee": "24 months",
    "type": "male"
  },
  {
    "id": 4,
    "name": "Pequignet Moorea",
    "price": "11 010",
    "url": "https://content1.rozetka.com.ua/goods/images/big/304986188.jpg",
    "article": "15633731",
    "color": "black",
    "factory": "Switzerland",
    "mechanism" : "Mechanical self-winding",
    "guarantee": "24 months",
    "type": "male"
  },
  {
    "id": 5,
    "name": "U-BOAT 8014",
    "price": "8 228",
    "url": "https://content.rozetka.com.ua/goods/images/original/62557164.jpg",
    "article": "16294545",
    "color": "gold",
    "factory": "Italy",
    "mechanism" : "Mechanical self-winding",
    "guarantee": "24 months",
    "type": "male"

  },
  {
    "id": 6,
    "name": "RSW 7120.P1.R1.1.00",
    "price": "7 866",
    "url": "https://content2.rozetka.com.ua/goods/images/big/227382168.jpg",
    "article": "19212341",
    "color": "black",
    "factory": "Switzerland",
    "mechanism" : "Mechanical self-winding",
    "guarantee": "24 months",
    "type": "male"
  },
  {
    "id": 7,
    "name": "Pequignet Rue Royale",
    "price": "6 529",
    "url": "https://content1.rozetka.com.ua/goods/images/big/304986402.jpg",
    "article": "23149818",
    "color": "silver",
    "factory": "France",
    "mechanism" : "Mechanical self-winding",
    "guarantee": "24 months",
    "type": "male"
  },
  {
    "id": 8,
    "name": "Pequignet Moorea Swan",
    "price": "5 584",
    "url": "https://content.rozetka.com.ua/goods/images/big/304985316.jpg",
    "article": "23415528",
    "color": "silver",
    "factory": "Switzerland",
    "mechanism" : "Mechanical self-winding",
    "guarantee": "24 months",
    "type": "female"
  },
  {
    "id": 9,
    "name": "Aerowatch 61901AA20SQ",
    "price": "5 138",
    "url": "https://content2.rozetka.com.ua/goods/images/big/35562257.jpg",
    "article": "29123184",
    "color": "silver",
    "factory": "Switzerland",
    "mechanism" : "Mechanical self-winding",
    "guarantee": "24 months",
    "type": "male"
  },
  {
    "id": 10,
    "name": "Seiko SPB359J1",
    "price": "5 000",
    "url": "https://content2.rozetka.com.ua/goods/images/big/314544095.jpg",
    "article": "32814588",
    "color": "silver",
    "factory": "Japan",
    "mechanism" : "Mechanical self-winding",
    "guarantee": "24 months",
    "type": "male"
  },
  {
    "id": 11,
    "name": "Pequignet Moorea Vintage",
    "price": "4 859",
    "url": "https://content2.rozetka.com.ua/goods/images/big/304985239.jpg",
    "article": "23918255",
    "color": "silver",
    "factory": "Switzerland",
    "mechanism" : "Mechanical self-winding",
    "guarantee": "24 months",
    "type": "male"
  },
  {
    "id": 12,
    "name": "Vogard EV 2046",
    "price": "4 386",
    "url": "https://content1.rozetka.com.ua/goods/images/big/227378854.jpg",
    "article": "29938265",
    "color": "purple",
    "factory": "Switzerland",
    "mechanism" : "Mechanical self-winding",
    "guarantee": "24 months",
    "type": "male"
  },
  {
    "id": 13,
    "name": "Fortis 659.27.92 MD",
    "price": "4 386",
    "url": "https://content1.rozetka.com.ua/goods/images/big/227381698.jpg",
    "article": "35782651",
    "color": "silver",
    "factory": "Switzerland",
    "mechanism" : "Mechanical self-winding",
    "guarantee": "24 months",
    "type": "male"

  },
  {
    "id": 14,
    "name": "Versace Dv One Chrono",
    "price": "3 586",
    "url": "https://content2.rozetka.com.ua/goods/images/big/304985696.jpg",
    "article": "17552133",
    "color": "black",
    "factory": "Switzerland",
    "mechanism" : "Mechanical self-winding",
    "guarantee": "24 months",
    "type": "male"
  },
  {
    "id": 15,
    "name": "Versace Mystique Hibiscus",
    "price": "3 435",
    "url": "https://content2.rozetka.com.ua/goods/images/big/304985160.jpg",
    "article": "17572133",
    "color": "silver",
    "factory": "Switzerland",
    "mechanism" : "Mechanical self-winding",
    "guarantee": "24 months",
    "type": "female"
  },
  {
    "id": 16,
    "name": "Cuervo y Sobrinos",
    "price": "3 335",
    "url": "https://content2.rozetka.com.ua/goods/images/big/227383392.jpg",
    "article": "22137526",
    "color": "silver",
    "factory": "Switzerland",
    "mechanism" : "Mechanical self-winding",
    "guarantee": "24 months",
    "type": "male"
  },
  {
    "id": 17,
    "name": "Korloff KCA2/W3",
    "price": "3 310",
    "url": "https://content2.rozetka.com.ua/goods/images/big/227369324.jpg",
    "article": "28177523",
    "color": "silver",
    "factory": "Switzerland",
    "mechanism" : "Mechanical self-winding",
    "guarantee": "24 months",
    "type": "male"
  },
  {
    "id": 18,
    "name": "Bunz 37020391/040",
    "price": "3 219",
    "url": "https://content.rozetka.com.ua/goods/images/big/227380343.jpg",
    "article": "24712631",
    "color": "silver",
    "factory": "Switzerland",
    "mechanism" : "Mechanical self-winding",
    "guarantee": "24 months",
    "type": "male"
  },
  {
    "id": 19,
    "name": "RSW 6025.BS.L2.2.F1",
    "price": "3 063",
    "url": "https://content.rozetka.com.ua/goods/images/big/228743338.jpg",
    "article": "32937026",
    "color": "silver",
    "factory": "Switzerland",
    "mechanism" : "Quartz",
    "guarantee": "24 months",
    "type": "female"
  },
  {
    "id": 20,
    "name": "Korloff TKCD9FN",
    "price": "2 781",
    "url": "https://content.rozetka.com.ua/goods/images/big/227372258.jpg",
    "article": "52418244",
    "color": "silver",
    "factory": "Switzerland",
    "mechanism" : "Quartz",
    "guarantee": "24 months",
    "type": "male"
  },
  {
    "id": 21,
    "name": "Korloff K14/279",
    "price": "2 620",
    "url": "https://content2.rozetka.com.ua/goods/images/big/227373375.jpg",
    "article": "762826554",
    "color": "silver",
    "factory": "Switzerland",
    "mechanism" : "Mechanical self-winding",
    "guarantee": "24 months",
    "type": "male"
  },
  {
    "id": 22,
    "name": "EPOS 3435.313.24.26.34",
    "price": "2 589",
    "url": "https://content2.rozetka.com.ua/goods/images/big/272220810.jpg",
    "article": "14783219",
    "color": "gold",
    "factory": "Switzerland",
    "mechanism" : "Mechanical self-winding",
    "guarantee": "24 months",
    "type": "male"

  },
  {
    "id": 23,
    "name": "Korloff LK32",
    "price": "2 424",
    "url": "https://content2.rozetka.com.ua/goods/images/big/228742560.jpg",
    "article": "39817201",
    "color": "silver",
    "factory": "Switzerland",
    "mechanism" : "Quartz",
    "guarantee": "24 months",
    "type": "female"
  },
  {
    "id": 24,
    "name": "Fortis 671.10.41 K",
    "price": "2 417",
    "url": "https://content2.rozetka.com.ua/goods/images/big/227383081.jpg",
    "article": "32751122",
    "color": "black",
    "factory": "Switzerland",
    "mechanism" : "Mechanical self-winding",
    "guarantee": "24 months",
    "type": "male"
  },
  {
    "id": 25,
    "name": "EPOS 3500.169.24.25.34",
    "price": "2 358",
    "url": "https://content2.rozetka.com.ua/goods/images/big/303726192.jpg",
    "article": "11007526",
    "color": "gold",
    "factory": "Switzerland",
    "mechanism" : "Mechanical self-winding",
    "guarantee": "24 months",
    "type": "male"
  }
]

