[
  {
    "id": "1",
    "src": "./img/gallery/additional/ad1.jpg"
  },

  {
    "id": "2",
    "src": "./img/gallery/additional/ad2.jpg"
  },

  {
    "id": "3",
    "src": "./img/gallery/additional/ad3.jpg"
  },

  {
    "id": "4",
    "src": "./img/gallery/additional/ad4.jpg"
  },

  {
    "id": "5",
    "src": "./img/gallery/additional/ad5.jpg"
  },

  {
    "id": "6",
    "src": "./img/gallery/additional/ad6.jpg"
  },

  {
    "id": "7",
    "src": "./img/gallery/additional/ad7.jpg"
  },

  {
    "id": "8",
    "src": "./img/gallery/additional/ad8.jpg"
  },

  {
    "id": "9",
    "src": "./img/gallery/additional/ad9.jpg"
  },

  {
    "id": "10",
    "src": "./img/gallery/additional/ad10.jpg"
  },

  {
    "id": "11",
    "src": "./img/gallery/additional/ad11.jpg"
  },

  {
    "id": "12",
    "src": "./img/gallery/additional/ad12.jpg"
  },
  {
    "id": "13",
    "src": "./img/gallery/additional/ad13.jpg"
  },

  {
    "id": "14",
    "src": "./img/gallery/additional/ad14.jpg"
  },

  {
    "id": "15",
    "src": "./img/gallery/additional/ad15.jpg"
  },

  {
    "id": "16",
    "src": "./img/gallery/additional/ad16.jpg"
  },

  {
    "id": "17",
    "src": "./img/gallery/additional/ad17.jpg"
  },

  {
    "id": "18",
    "src": "./img/gallery/additional/ad18.jpg"
  },

  {
    "id": "19",
    "src": "./img/gallery/additional/ad19.jpg"
  },

  {
    "id": "20",
    "src": "./img/gallery/additional/ad20.jpg"
  },

  {
    "id": "21",
    "src": "./img/gallery/additional/ad21.jpg"
  },

  {
    "id": "22",
    "src": "./img/gallery/additional/ad22.jpg"
  },

  {
    "id": "23",
    "src": "./img/gallery/additional/ad23.jpg"
  },

  {
    "id": "24",
    "src": "./img/gallery/additional/ad24.jpg"
  },

  {
    "id": "25",
    "src": "./img/gallery/additional/ad25.jpg"
  }
]